-------------------------------------------------------------------------------
Test set: com.mycompany.pprog_pl6.ContribuinteNGTest
-------------------------------------------------------------------------------
Tests run: 1, Failures: 0, Errors: 0, Skipped: 0, Time elapsed: 0.421 sec
