<?xml version="1.0" encoding="UTF-8"?>
<testng-results skipped="0" failed="0" total="1" passed="1">
  <reporter-output>
  </reporter-output>
  <suite name="com.mycompany.pprog_pl6.ContribuinteNGTest" duration-ms="25" started-at="2019-04-01T13:54:06Z" finished-at="2019-04-01T13:54:06Z">
    <groups>
    </groups>
    <test name="Command line test" duration-ms="25" started-at="2019-04-01T13:54:06Z" finished-at="2019-04-01T13:54:06Z">
      <class name="com.mycompany.pprog_pl6.ContribuinteNGTest">
        <test-method status="PASS" signature="testCalculoImposto()[pri:0, instance:com.mycompany.pprog_pl6.ContribuinteNGTest@6adca536]" name="testCalculoImposto" duration-ms="24" started-at="2019-04-01T14:54:06Z" finished-at="2019-04-01T14:54:06Z">
          <reporter-output>
          </reporter-output>
        </test-method> <!-- testCalculoImposto -->
      </class> <!-- com.mycompany.pprog_pl6.ContribuinteNGTest -->
    </test> <!-- Command line test -->
  </suite> <!-- com.mycompany.pprog_pl6.ContribuinteNGTest -->
</testng-results>
